{
  "request": {
    "method": "GET",
    "url": "/radio-stations?size=10&sort=id%2Cdesc&page=0"
  },
  "response": {
    "status": 200,
    "jsonBody": {
      "_embedded": {
        "radioStationResponseList": [
          {
            "id": 5,
            "uniqueId": "8opTyNe9dk7ujd800t5f",
            "created": "2020-05-07T18:50:02.056985Z",
            "title": "\"The Hits\" Radio",
            "website": null,
            "enabled": true,
            "genres": [],
            "_links": {
              "self": {
                "href": "https://api.onlineradiosearch.com/radio-stations/5"
              }
            }
          },
          {
            "id": 6,
            "uniqueId": "KZEk8qXr3lQctpU7zcX1",
            "created": "2020-05-07T19:01:17.177423Z",
            "title": "FRISKY CHILL | feelin' frisky?",
            "website": "http://www.frisky.fm",
            "enabled": true,
            "genres": [
              {
                "id": 1,
                "uniqueId": "3aQkXS1LZl3YwrcSETMH",
                "title": "Ambient"
              }
            ],
            "_links": {
              "self": {
                "href": "https://api.onlineradiosearch.com/radio-stations/6"
              }
            }
          },
          {
            "id": 65,
            "uniqueId": "Pxse3Bfs9k9EuuQwbKGu",
            "created": "2020-05-25T22:07:41.482613Z",
            "title": "radio-roermondialive",
            "website": null,
            "enabled": true,
            "genres": [],
            "_links": {
              "self": {
                "href": "https://api.onlineradiosearch.com/radio-stations/65"
              }
            }
          },
          {
            "id": 7,
            "uniqueId": "7SLqHTrz1x92jsGqCrYX",
            "created": "2020-05-07T19:09:25.627652Z",
            "title": "Web Radio DNOR",
            "website": "webradiodnor.myl2mr.com",
            "enabled": true,
            "genres": [
              {
                "id": 2,
                "uniqueId": "MrRjg4jVXGqRJQ6wgj7l",
                "title": "Live Mix"
              }
            ],
            "_links": {
              "self": {
                "href": "https://api.onlineradiosearch.com/radio-stations/7"
              }
            }
          },
          {
            "id": 8,
            "uniqueId": "2BJcEmltFHeYggqd4a2M",
            "created": "2020-05-07T19:24:44.428283Z",
            "title": "Vanilla Radio Deep flavors",
            "website": "www.vanillaradio.com",
            "enabled": true,
            "genres": [
              {
                "id": 3,
                "uniqueId": "qjaTORtqfdXfDB0NRuD3",
                "title": "Deep ,Afro , Soulful , Vocal House , Nu Disco & DJ Sets"
              },
              {
                "id": 7,
                "uniqueId": "xoTXPoOcAGLi2RbZQcHB",
                "title": "Nu Disco & DJ Sets"
              },
              {
                "id": 5,
                "uniqueId": "n67rY8lLt141BirrEYiT",
                "title": "Soulful"
              },
              {
                "id": 6,
                "uniqueId": "WlGKg9oaDyWbD7zOxD4C",
                "title": "Vocal House"
              },
              {
                "id": 4,
                "uniqueId": "SHzgPZiOHOkqX17bF74M",
                "title": "Deep ,Afro"
              }
            ],
            "_links": {
              "self": {
                "href": "https://api.onlineradiosearch.com/radio-stations/8"
              }
            }
          },
          {
            "id": 9,
            "uniqueId": "vrKzXQwxOQypou1gtvZO",
            "created": "2020-05-25T21:58:28.542412Z",
            "title": "Chilis - IFC Qatar - Retail Music International",
            "website": null,
            "enabled": true,
            "genres": [],
            "_links": {
              "self": {
                "href": "https://api.onlineradiosearch.com/radio-stations/9"
              }
            }
          },
          {
            "id": 10,
            "uniqueId": "5CRkIGbMKK657QAMKfXq",
            "created": "2020-05-25T21:58:28.680945Z",
            "title": "Testis",
            "website": null,
            "enabled": true,
            "genres": [],
            "_links": {
              "self": {
                "href": "https://api.onlineradiosearch.com/radio-stations/10"
              }
            }
          },
          {
            "id": 11,
            "uniqueId": "kpV7xoyPgNs1sNO7sWyi",
            "created": "2020-05-25T22:00:03.236571Z",
            "title": "Chilis - IFC Qatsaar - Retail Music Inaaternational",
            "website": null,
            "enabled": true,
            "genres": [],
            "_links": {
              "self": {
                "href": "https://api.onlineradiosearch.com/radio-stations/11"
              }
            }
          },
          {
            "id": 12,
            "uniqueId": "TEcLoebCw6wLxhxzKCTY",
            "created": "2020-05-25T22:01:20.373784Z",
            "title": "(#1 - 1/10) Strange Fruit Radio",
            "website": null,
            "enabled": true,
            "genres": [],
            "_links": {
              "self": {
                "href": "https://api.onlineradiosearch.com/radio-stations/12"
              }
            }
          },
          {
            "id": 13,
            "uniqueId": "HuAlY14nEzdqUflhah5B",
            "created": "2020-05-25T22:01:20.391074Z",
            "title": "(#1 - 19/100) Ganje Hozour Replay Radio",
            "website": null,
            "enabled": true,
            "genres": [],
            "_links": {
              "self": {
                "href": "https://api.onlineradiosearch.com/radio-stations/13"
              }
            }
          },
          {
            "id": 14,
            "uniqueId": "sVhXbXLsffrZgZ1iyb8U",
            "created": "2020-05-25T22:01:20.407141Z",
            "title": "(#1 - 0/999) Main Radio",
            "website": null,
            "enabled": true,
            "genres": [],
            "_links": {
              "self": {
                "href": "https://api.onlineradiosearch.com/radio-stations/14"
              }
            }
          },
          {
            "id": 15,
            "uniqueId": "jTrtFrDrx3a26LuiApNt",
            "created": "2020-05-25T22:01:20.423903Z",
            "title": "(#1 - 0/999) Radio Amigo Espirita 1",
            "website": null,
            "enabled": true,
            "genres": [],
            "_links": {
              "self": {
                "href": "https://api.onlineradiosearch.com/radio-stations/15"
              }
            }
          },
          {
            "id": 16,
            "uniqueId": "Hhz1h6hELwnCg8ML2sJ6",
            "created": "2020-05-25T22:01:20.440785Z",
            "title": "(#1 - 1/400) Radio Atacama Nuevo Mundo 96.9 FM Copiap",
            "website": null,
            "enabled": true,
            "genres": [],
            "_links": {
              "self": {
                "href": "https://api.onlineradiosearch.com/radio-stations/16"
              }
            }
          },
          {
            "id": 17,
            "uniqueId": "z3UiNLuNYLz4DIh7PCx6",
            "created": "2020-05-25T22:07:39.697842Z",
            "title": "(#1 - 5/50) Radio Moonchild met Dj Spet",
            "website": null,
            "enabled": true,
            "genres": [],
            "_links": {
              "self": {
                "href": "https://api.onlineradiosearch.com/radio-stations/17"
              }
            }
          },
          {
            "id": 18,
            "uniqueId": "7MnMubHuse6MSZEl8vwl",
            "created": "2020-05-25T22:07:39.715366Z",
            "title": "(#1 - 0/1000) Evo Radio",
            "website": null,
            "enabled": true,
            "genres": [],
            "_links": {
              "self": {
                "href": "https://api.onlineradiosearch.com/radio-stations/18"
              }
            }
          },
          {
            "id": 19,
            "uniqueId": "NTOJgaPTxr9JHd1suneA",
            "created": "2020-05-25T22:07:39.737159Z",
            "title": "(#1 - 0/50) The Duke Of Holland",
            "website": null,
            "enabled": true,
            "genres": [],
            "_links": {
              "self": {
                "href": "https://api.onlineradiosearch.com/radio-stations/19"
              }
            }
          },
          {
            "id": 20,
            "uniqueId": "WgVExn1gnOPByeU9Mvdi",
            "created": "2020-05-25T22:07:39.75743Z",
            "title": "(#1 - 0/25) LA PARLATA",
            "website": null,
            "enabled": true,
            "genres": [],
            "_links": {
              "self": {
                "href": "https://api.onlineradiosearch.com/radio-stations/20"
              }
            }
          },
          {
            "id": 21,
            "uniqueId": "GLJ1CHZEyd3mmn72D4Ot",
            "created": "2020-05-25T22:07:39.785048Z",
            "title": "(#1 - 0/500) Radio Amely",
            "website": null,
            "enabled": true,
            "genres": [],
            "_links": {
              "self": {
                "href": "https://api.onlineradiosearch.com/radio-stations/21"
              }
            }
          },
          {
            "id": 22,
            "uniqueId": "ycwfvXXBltOWzLsxXGaX",
            "created": "2020-05-25T22:07:39.862552Z",
            "title": "(#1 - 2/50) WHLA RADIO.com - Gospel",
            "website": null,
            "enabled": true,
            "genres": [],
            "_links": {
              "self": {
                "href": "https://api.onlineradiosearch.com/radio-stations/22"
              }
            }
          },
          {
            "id": 23,
            "uniqueId": "vsvxELBV9nKdRi8vCqUb",
            "created": "2020-05-25T22:07:39.899171Z",
            "title": "(#1 - 1/100) HGM 24/7 - Haupts",
            "website": null,
            "enabled": true,
            "genres": [],
            "_links": {
              "self": {
                "href": "https://api.onlineradiosearch.com/radio-stations/23"
              }
            }
          }
        ]
      },
      "_links": {
        "self": {
          "href": "https://api.onlineradiosearch.com/radio-stations"
        }
      },
      "page": {
        "size": 20,
        "totalElements": 16454,
        "totalPages": 823,
        "number": 0
      }
    },
    "headers": {
      "Content-Type": "application/hal+json"
    }
  }
}